Information: Request:
Method: POST, RequestUri: 'https://api.enjin.com/api/v1/mobile.php', Version: 1.1, Content: System.Net.Http.StringContent, Headers:
{
user-agent: EnjinMobile.PortableRpc 1.0.0 (PortableRest 1.0.0)
Content-Type: application/json; charset=utf-8
}
{"mobile":{"platform":"android","release":"beta","version":"0.4.7"},"method":"User.login","params":{"email":"derek+3@enjin.com","password":"Nebraska1"},"id":319527733,"jsonrpc":"2.0"}

Information: Response:
StatusCode: 200, ReasonPhrase: 'OK', Version: 1.1, Content: System.Net.Http.StreamContent, Headers:
{
Server: nginx
Date: Wed, 24 Feb 2016 00:49:22 GMT
Transfer-Encoding: chunked
Connection: keep-alive
X-Powered-By: PHP/5.6.17
Cache-Control: no-store, no-cache, must-revalidate, post-check=0, pre-check=0
Pragma: no-cache
Set-Cookie: PHPSESSID=9sarink5atk5ofq0fv1l2ko700; expires=Fri, 25-Mar-2016 00:49:22 GMT; Max-Age=2592000; path=/; domain=.enjin.com; HttpOnly, user_partial_login=user_partial_login_7f55606c14a6f3b5647db98210fe6fac; expires=Wed, 24-Feb-2016 01:19:22 GMT; Max-Age=1800; path=/; httponly, visid_incap_15251=7XzbMYNnRH6Vu2mgtBS6ARH+zFYAAAAAQUIPAAAAAABOwFcpLSmfm08te7RI5x5t; expires=Wed, 22 Feb 2017 09:35:16 GMT; path=/; Domain=.enjin.com, incap_ses_168_15251=lYQxCL7wiECCnkVcgNtUAhH+zFYAAAAAm5oFa7GWGK+jNYD7wQjzug==; path=/; Domain=.enjin.com
X-Iinfo: 6-143728671-143681121 PNNN RT(1456274961374 153) q(0 0 0 -1) r(1 1) U6
X-CDN: Incapsula
Content-Type: application/json
Expires: Thu, 19 Nov 1981 08:52:00 GMT
}
{"result":{"session_id":"9sarink5atk5ofq0fv1l2ko700","authy":"user_partial_login_7f55606c14a6f3b5647db98210fe6fac"},"id":"319527733","jsonrpc":"2.0"}

=======================================================

Information: Request:
Method: POST, RequestUri: 'https://api.enjin.com/api/v1/mobile.php', Version: 1.1, Content: System.Net.Http.StringContent, Headers:
{
user-agent: EnjinMobile.PortableRpc 1.0.0 (PortableRest 1.0.0)
Content-Type: application/json; charset=utf-8
}
{"mobile":{"platform":"android","release":"beta","version":"0.4.7"},"method":"User.authySMS","params":{"user_partial_login":"user_partial_login_7f55606c14a6f3b5647db98210fe6fac"},"id":1029897980,"jsonrpc":"2.0"}

Information: Response:
StatusCode: 200, ReasonPhrase: 'OK', Version: 1.1, Content: System.Net.Http.StreamContent, Headers:
{
Server: nginx
Date: Wed, 24 Feb 2016 00:49:40 GMT
Transfer-Encoding: chunked
Connection: keep-alive
X-Powered-By: PHP/5.6.17
Cache-Control: no-store, no-cache, must-revalidate, post-check=0, pre-check=0
Pragma: no-cache
Set-Cookie: incap_ses_168_15251=psUnBIxTxmWvwEVcgNtUAiT+zFYAAAAADIh4b0c1XXwA7RGKIiIAoA==; path=/; Domain=.enjin.com
X-Iinfo: 6-143728671-143729539 PNNN RT(1456274961374 18690) q(0 0 0 7) r(3 3) U6
X-CDN: Incapsula
Content-Type: application/json
Expires: Thu, 19 Nov 1981 08:52:00 GMT
}
{"result":{"authy_country":"1","authy_phone":"992"},"id":"1029897980","jsonrpc":"2.0"}

=======================================================

Information: Request:
Method: POST, RequestUri: 'https://api.enjin.com/api/v1/mobile.php', Version: 1.1, Content: System.Net.Http.StringContent, Headers:
{
user-agent: EnjinMobile.PortableRpc 1.0.0 (PortableRest 1.0.0)
Content-Type: application/json; charset=utf-8
}
{"mobile":{"platform":"android","release":"beta","version":"0.4.7"},"method":"User.authyVerify","params":{"authy_code":"9325504","user_partial_login":"user_partial_login_7f55606c14a6f3b5647db98210fe6fac"},"id":555477199,"jsonrpc":"2.0"}

Information: Response:
StatusCode: 200, ReasonPhrase: 'OK', Version: 1.1, Content: System.Net.Http.StreamContent, Headers:
{
Server: nginx
Date: Wed, 24 Feb 2016 00:50:19 GMT
Transfer-Encoding: chunked
Connection: keep-alive
X-Powered-By: PHP/5.6.17
Cache-Control: no-store, no-cache, must-revalidate, post-check=0, pre-check=0
Pragma: no-cache
Set-Cookie: PHPSESSID=i9bi6e51bumk082glphtoeoph6; path=/; domain=.enjin.com; HttpOnly, user_partial_login=deleted; expires=Thu, 01-Jan-1970 00:00:01 GMT; Max-Age=0; path=/; httponly
X-Iinfo: 6-143728671-143729539 PNNN RT(1456274961374 57179) q(0 0 0 -1) r(3 3) U6
X-CDN: Incapsula
Content-Type: application/json
Expires: Thu, 19 Nov 1981 08:52:00 GMT
}
{"result":{"session_id":"i9bi6e51bumk082glphtoeoph6","notification_counts":{"mail":"1","notifications":"0","applications":"0","pending_friend_requests":"0"},"pusher_channels":{"pusher_userchannel":"ppublic-user15742514.16172e576cf3d0681da4ef2bfbe0f338","pusher_sitechannel":"presence-site","pusher_chatchannel":"presence-pchat"},"user_id":"15742514","username":"derekenjin73","resources":"http:\/\/resources.guild-hosting.net\/201602222219\/","sites":[{"site_id":"1173981","name":"test","url":"http:\/\/mysite1023.enjin.com"}]},"id":"555477199","jsonrpc":"2.0"}

=======================================================

Information: Request:
Method: POST, RequestUri: 'https://api.enjin.com/api/v1/mobile.php', Version: 1.1, Content: System.Net.Http.StringContent, Headers:
{
user-agent: EnjinMobile.PortableRpc 1.0.0 (PortableRest 1.0.0)
Content-Type: application/json; charset=utf-8
}
{"mobile":{"platform":"android","release":"beta","version":"0.4.7"},"method":"Feed.getFeed","params":{"session_id":"i9bi6e51bumk082glphtoeoph6","filter":"friends","limit":30,"limit_comments":3,"comments_order":"desc","with_replies":false,"limit_likes":5},"id":1003779242,"jsonrpc":"2.0"}

Information: Response:
StatusCode: 200, ReasonPhrase: 'OK', Version: 1.1, Content: System.Net.Http.StreamContent, Headers:
{
Server: nginx
Date: Wed, 24 Feb 2016 00:50:19 GMT
Transfer-Encoding: chunked
Connection: keep-alive
X-Powered-By: PHP/5.6.17
Set-Cookie: PHPSESSID=i9bi6e51bumk082glphtoeoph6; path=/; domain=.enjin.com; HttpOnly, visid_incap_15251=3R1GjD2bTiuO3g5zUqPWwUv+zFYAAAAAQUIPAAAAAAAbuZjdM0W2jLt5ryhjz76k; expires=Wed, 22 Feb 2017 09:35:28 GMT; path=/; Domain=.enjin.com, incap_ses_168_15251=QitJe8yXRTGAC0ZcgNtUAkv+zFYAAAAA1PFid+HkphvZ6kRHMKcu4A==; path=/; Domain=.enjin.com
Cache-Control: no-store, no-cache, must-revalidate, post-check=0, pre-check=0
Pragma: no-cache
X-Iinfo: 3-106283034-106279219 PNNN RT(1456275019181 67) q(0 0 0 -1) r(1 1) U6
X-CDN: Incapsula
Content-Type: application/json
Expires: Thu, 19 Nov 1981 08:52:00 GMT
}
{"result":[],"id":"1003779242","jsonrpc":"2.0"}

=======================================================

Information: Request:
Method: POST, RequestUri: 'https://api.enjin.com/api/v1/mobile.php', Version: 1.1, Content: System.Net.Http.StringContent, Headers:
{
user-agent: EnjinMobile.PortableRpc 1.0.0 (PortableRest 1.0.0)
Content-Type: application/json; charset=utf-8
}
{"mobile":{"platform":"android","release":"beta","version":"0.4.7"},"method":"Profile.getProfile","params":{"session_id":"i9bi6e51bumk082glphtoeoph6","user_id":15742514},"id":625205828,"jsonrpc":"2.0"}
Information: Request:
Method: POST, RequestUri: 'https://api.enjin.com/api/v1/mobile.php', Version: 1.1, Content: System.Net.Http.StringContent, Headers:
{
user-agent: EnjinMobile.PortableRpc 1.0.0 (PortableRest 1.0.0)
Content-Type: application/json; charset=utf-8
}
{"mobile":{"platform":"android","release":"beta","version":"0.4.7"},"method":"Profile.getInfo","params":{"session_id":"i9bi6e51bumk082glphtoeoph6","user_id":15742514},"id":610759369,"jsonrpc":"2.0"}
Information: Request:
Method: POST, RequestUri: 'https://api.enjin.com/api/v1/mobile.php', Version: 1.1, Content: System.Net.Http.StringContent, Headers:
{
user-agent: EnjinMobile.PortableRpc 1.0.0 (PortableRest 1.0.0)
Content-Type: application/json; charset=utf-8
}
{"mobile":{"platform":"android","release":"beta","version":"0.4.7"},"method":"Profile.getCommunities","params":{"session_id":"i9bi6e51bumk082glphtoeoph6","user_id":15742514},"id":703030990,"jsonrpc":"2.0"}

Information: Response:
StatusCode: 200, ReasonPhrase: 'OK', Version: 1.1, Content: System.Net.Http.StreamContent, Headers:
{
Server: nginx
Date: Wed, 24 Feb 2016 00:50:20 GMT
Transfer-Encoding: chunked
Connection: keep-alive
X-Powered-By: PHP/5.6.17
Set-Cookie: PHPSESSID=i9bi6e51bumk082glphtoeoph6; path=/; domain=.enjin.com; HttpOnly, visid_incap_15251=5Vxh5csRQRa/IzPUIFsGcUz+zFYAAAAAQUIPAAAAAADA2zKvewe0nsT7TR3MYX3O; expires=Wed, 22 Feb 2017 09:35:28 GMT; path=/; Domain=.enjin.com, incap_ses_168_15251=Gu0tPgxJ9zFPDUZcgNtUAkz+zFYAAAAA0w3DD1wRl+/kpcUDtf5o6Q==; path=/; Domain=.enjin.com
Cache-Control: no-store, no-cache, must-revalidate, post-check=0, pre-check=0
Pragma: no-cache
X-Iinfo: 2-85123896-85123905 NNNN CT(55 117 0) RT(1456275020023 61) q(0 0 2 -1) r(3 3) U6
X-CDN: Incapsula
Content-Type: application/json
Expires: Thu, 19 Nov 1981 08:52:00 GMT
}
{"result":{"user_id":"15742514","username":"derekenjin73","avatar":"http:\/\/resources.guild-hosting.net\/201602222219\/profile\/images\/avatar\/medium.png","cover":"","cover_timestamp":"","cover_ext":"","cover_premade":"","cover_image":"http:\/\/resources.guild-hosting.net\/201602222219\/themes\/v2\/image\/profile\/cover\/default.png","quote":"E is for Enjin!","location":"Earth","number_views":"5","joined":"1455666207","last_login":"1456275019","last_activity":"1456263148","friend_type":false,"favorite":false},"id":"625205828","jsonrpc":"2.0"}

Information: Response:
StatusCode: 200, ReasonPhrase: 'OK', Version: 1.1, Content: System.Net.Http.StreamContent, Headers:
{
Server: nginx
Date: Wed, 24 Feb 2016 00:50:21 GMT
Transfer-Encoding: chunked
Connection: keep-alive
X-Powered-By: PHP/5.6.17
Set-Cookie: PHPSESSID=i9bi6e51bumk082glphtoeoph6; path=/; domain=.enjin.com; HttpOnly, visid_incap_15251=fBE63BT4RvKWSOznp6FFxEz+zFYAAAAAQUIPAAAAAAA6kNH8TOgn2IeuTuJ2E7Sb; expires=Wed, 22 Feb 2017 09:35:28 GMT; path=/; Domain=.enjin.com, incap_ses_168_15251=ACUGe59+9CpYDUZcgNtUAkz+zFYAAAAABFqC9ofoBqAxx79O8KX1lg==; path=/; Domain=.enjin.com
Cache-Control: no-store, no-cache, must-revalidate, post-check=0, pre-check=0
Pragma: no-cache
X-Iinfo: 8-205640161-205640171 NNNN CT(54 117 0) RT(1456275020036 67) q(0 0 1 -1) r(2 2) U6
X-CDN: Incapsula
Content-Type: application/json
Expires: Thu, 19 Nov 1981 08:52:00 GMT
}
{"result":{"location":"Earth","gender":"Male","birthdate_day":"24","birthdate_month":"02","birthdate_year":"2016","about":"My name is derekenjin73 and I joined Enjin on 16 February 2016. I'm into gaming and other fun activities. Add me as a friend or message me if you're interested to learn more about me.","age":"-","location_name":"Earth","forum_posts":"2","number_views":"5","friends":0,"gamerid_steam":"","gamerid_psn":"","gamerid_xbox":"","gamerid_contact_skype":"","gamerid_twitter":"","gamerid_facebook":"","gamerid_google":"","gamerid_youtube":"","gamerid_twitch":"","gamerid_origin":""},"id":"610759369","jsonrpc":"2.0"}
Information: Response:
StatusCode: 200, ReasonPhrase: 'OK', Version: 1.1, Content: System.Net.Http.StreamContent, Headers:
{
Server: nginx
Date: Wed, 24 Feb 2016 00:50:21 GMT
Transfer-Encoding: chunked
Connection: keep-alive
X-Powered-By: PHP/5.6.17
Cache-Control: no-store, no-cache, must-revalidate, post-check=0, pre-check=0
Pragma: no-cache
X-Iinfo: 2-85123896-85123953 NNNN CT(56 55 0) RT(1456275020023 411) q(0 0 1 0) r(2 2) U6
X-CDN: Incapsula
Content-Type: application/json
Expires: Thu, 19 Nov 1981 08:52:00 GMT
}
{"result":{"pager":{"total":"1","pages":1,"page":1,"next_page":false},"items":[{"site_id":"1340","name":"Enjin Forums","plan_id":"4","domain":"http:\/\/www.enjin.com","welcome_message":"Welcome to the official Enjin community forums!","logo":"<img src=\"http:\/\/files.enjin.com.s3.amazonaws.com\/1340\/site_logo\/medium.png\" width=\"43\" height=\"43\">","access":"User","num_users":"15798798"}]},"id":"703030990","jsonrpc":"2.0"}

=======================================================

Information: Request:
Method: POST, RequestUri: 'https://api.enjin.com/api/v1/mobile.php', Version: 1.1, Content: System.Net.Http.StringContent, Headers:
{
user-agent: EnjinMobile.PortableRpc 1.0.0 (PortableRest 1.0.0)
Content-Type: application/json; charset=utf-8
}
{"mobile":{"platform":"android","release":"beta","version":"0.4.7"},"method":"Messages.getList","params":{"msg_type":"inbox","session_id":"i9bi6e51bumk082glphtoeoph6","page":1,"limit":25},"id":268314468,"jsonrpc":"2.0"}

Information: Response:
StatusCode: 200, ReasonPhrase: 'OK', Version: 1.1, Content: System.Net.Http.StreamContent, Headers:
{
Server: nginx
Date: Wed, 24 Feb 2016 00:50:59 GMT
Transfer-Encoding: chunked
Connection: keep-alive
X-Powered-By: PHP/5.6.17
Set-Cookie: PHPSESSID=i9bi6e51bumk082glphtoeoph6; path=/; domain=.enjin.com; HttpOnly, visid_incap_15251=5qJ2ZuKxSd2g6Htc+PuR0HL+zFYAAAAAQUIPAAAAAABZ+F7YYo4+sGiCZqyoOu2x; expires=Wed, 22 Feb 2017 09:35:28 GMT; path=/; Domain=.enjin.com, incap_ses_168_15251=tLpUPUAwMmYnWEZcgNtUAnL+zFYAAAAAX5p4tz3C44WP8bAmi/tuGQ==; path=/; Domain=.enjin.com
Cache-Control: no-store, no-cache, must-revalidate, post-check=0, pre-check=0
Pragma: no-cache
X-Iinfo: 5-165329746-165300126 PNNN RT(1456275058671 68) q(0 0 0 -1) r(1 1) U6
X-CDN: Incapsula
Content-Type: application/json
Expires: Thu, 19 Nov 1981 08:52:00 GMT
}
{"id":"268314468","jsonrpc":"2.0","error":{"code":-32001,"message":"Authentication Failed (main)"}}

